<svg width="26" height="22" viewBox="0 0 26 22" fill="none" xmlns="http://www.w3.org/2000/svg">
<path d="M8.76245 0.5V0V0.5ZM8.66152 0.5V0H8.56058L8.46755 0.0391563L8.66152 0.5ZM13 0.5H13.5V1.78814e-07H13V0.5ZM13 1.5V2L13.5 2V1.5H13ZM8.86339 1.5V1L8.76245 1L8.66942 1.03916L8.86339 1.5ZM5.40796 2.95436L5.214 2.49352L5.09983 2.54157L5.0213 2.63736L5.40796 2.95436ZM2.38666 6.63958L2.06966 7.02625L2.45632 7.34325L2.77333 6.95659L2.38666 6.63958ZM1.61334 6.00558L1.22667 5.68857L0.909669 6.07524L1.29633 6.39224L1.61334 6.00558ZM4.71317 2.22457L5.09983 2.54157L4.71317 2.22457ZM4.7917 2.12878L4.59773 1.66794L4.48357 1.71599L4.40504 1.81178L4.7917 2.12878ZM4.90587 2.08073L5.09983 2.54157L4.90587 2.08073ZM8.56849 0.539156L8.76245 1L8.76245 1L8.56849 0.539156ZM13.4001 20.7001L13.7 21.1002L14.1001 20.8004L13.8002 20.4003L13.4001 20.7001ZM2.40011 6.02272L2.80021 5.72286L2.50035 5.32276L2.10025 5.62262L2.40011 6.02272ZM12.5999 21.2999L12.1998 21.5997L12.4996 21.9998L12.8998 21.7L12.5999 21.2999ZM1.59989 6.62244L1.30004 6.22233L0.89993 6.52219L1.19979 6.9223L1.59989 6.62244ZM17.2375 0.5L17.2375 0L17.2375 0.5ZM13 0.5V1.78814e-07H12.5V0.5H13ZM17.3385 0.5L17.5325 0.0391563L17.4394 0H17.3385V0.5ZM17.4315 0.539156L17.2375 1V1L17.4315 0.539156ZM21.0941 2.08073L21.2881 1.61988V1.61988L21.0941 2.08073ZM21.2083 2.12878L21.595 1.81177L21.5164 1.71599L21.4023 1.66794L21.2083 2.12878ZM21.2868 2.22457L21.6735 1.90756V1.90756L21.2868 2.22457ZM24.3867 6.00558L24.7037 6.39224L25.0903 6.07524L24.7733 5.68857L24.3867 6.00558ZM23.6133 6.63958L23.2267 6.95659L23.5437 7.34325L23.9303 7.02625L23.6133 6.63958ZM20.592 2.95436L20.9787 2.63736L20.9002 2.54157L20.786 2.49352L20.592 2.95436ZM17.1366 1.5L17.3306 1.03916L17.2375 1L17.1366 1L17.1366 1.5ZM13 1.5H12.5V2L13 2V1.5ZM13.4001 21.2999L13.1002 21.7L13.5004 21.9998L13.8002 21.5997L13.4001 21.2999ZM24.4001 6.62244L24.8002 6.9223L25.1001 6.52219L24.7 6.22233L24.4001 6.62244ZM12.5999 20.7001L12.1998 20.4003L11.8999 20.8004L12.3 21.1002L12.5999 20.7001ZM23.5999 6.02272L23.8998 5.62262L23.4996 5.32276L23.1998 5.72286L23.5999 6.02272ZM8.76245 0H8.66152V1H8.76245V0ZM13 1.78814e-07L8.76245 0V1L13 1V1.78814e-07ZM13.5 1.5V0.5H12.5V1.5H13.5ZM8.86339 2L13 2V1L8.86339 1V2ZM5.60193 3.41521L9.05735 1.96084L8.66942 1.03916L5.214 2.49352L5.60193 3.41521ZM2.77333 6.95659L5.79463 3.27137L5.0213 2.63736L2 6.32258L2.77333 6.95659ZM1.29633 6.39224L2.06966 7.02625L2.70367 6.25292L1.93034 5.61891L1.29633 6.39224ZM4.32651 1.90756L1.22667 5.68857L2 6.32258L5.09983 2.54157L4.32651 1.90756ZM4.40504 1.81178L4.32651 1.90756L5.09983 2.54157L5.17836 2.44578L4.40504 1.81178ZM4.7119 1.61988L4.59773 1.66794L4.98567 2.58962L5.09983 2.54157L4.7119 1.61988ZM8.37452 0.0783121L4.7119 1.61988L5.09983 2.54157L8.76245 1L8.37452 0.0783121ZM8.46755 0.0391563L8.37452 0.0783124L8.76245 1L8.85548 0.960844L8.46755 0.0391563ZM13.8002 20.4003L2.80021 5.72286L2 6.32258L13 21L13.8002 20.4003ZM12.8998 21.7L13.7 21.1002L13.1002 20.3L12.3 20.8998L12.8998 21.7ZM1.19979 6.9223L12.1998 21.5997L13 21L2 6.32258L1.19979 6.9223ZM2.10025 5.62262L1.30004 6.22233L1.89975 7.02255L2.69996 6.42283L2.10025 5.62262ZM17.2375 0L13 1.78814e-07V1L17.2375 1L17.2375 0ZM17.3385 0H17.2375V1H17.3385V0ZM17.6255 0.0783124L17.5325 0.0391563L17.1445 0.960844L17.2375 1L17.6255 0.0783124ZM21.2881 1.61988L17.6255 0.0783121L17.2375 1L20.9002 2.54157L21.2881 1.61988ZM21.4023 1.66794L21.2881 1.61988L20.9002 2.54157L21.0143 2.58962L21.4023 1.66794ZM21.6735 1.90756L21.595 1.81177L20.8216 2.44578L20.9002 2.54157L21.6735 1.90756ZM24.7733 5.68857L21.6735 1.90756L20.9002 2.54157L24 6.32258L24.7733 5.68857ZM23.9303 7.02625L24.7037 6.39224L24.0697 5.61891L23.2963 6.25292L23.9303 7.02625ZM20.2054 3.27137L23.2267 6.95659L24 6.32258L20.9787 2.63736L20.2054 3.27137ZM16.9426 1.96084L20.3981 3.41521L20.786 2.49352L17.3306 1.03916L16.9426 1.96084ZM13 2L17.1366 2L17.1366 1L13 1V2ZM12.5 0.5V1.5H13.5V0.5H12.5ZM13.8002 21.5997L24.8002 6.9223L24 6.32258L13 21L13.8002 21.5997ZM12.3 21.1002L13.1002 21.7L13.7 20.8998L12.8998 20.3L12.3 21.1002ZM23.1998 5.72286L12.1998 20.4003L13 21L24 6.32258L23.1998 5.72286ZM24.7 6.22233L23.8998 5.62262L23.3 6.42283L24.1002 7.02255L24.7 6.22233Z" fill="#6B59B4"/>
<path d="M5.15442 2.55281L8.81896 4.70971H17.2218L20.8456 2.53229" stroke="#6B59B4"/>
<path d="M17.2059 4.70966L20.196 8.49998L23.6765 6.02449" stroke="#6B59B4"/>
<path d="M8.875 4.70966L5.8849 8.49998L2.32353 5.94451" stroke="#6B59B4"/>
<path d="M20.2794 8.5L13 21" stroke="#6B59B4"/>
<path d="M5.88235 8.5L13 20.7581" stroke="#6B59B4"/>
<path d="M5.96326 8.5H20.1177" stroke="#6B59B4"/>
</svg>
