<svg width="100" height="100" viewBox="0 0 100 100" fill="none" xmlns="http://www.w3.org/2000/svg">
<path fill-rule="evenodd" clip-rule="evenodd" d="M50.485 66.2606C50.485 66.2606 33 51.6703 33 45.7392C33 39.8081 37.7919 35 43.7029 35C46.2769 35 50.485 38.0688 50.485 38.0688C50.485 38.0688 54.6931 35 57.2671 35C63.1781 35 67.97 39.8081 67.97 45.7392C67.97 51.6703 50.485 66.2606 50.485 66.2606Z" fill="#424753"/>
<path opacity="0.5" d="M50 97.5C76.2335 97.5 97.5 76.2335 97.5 50C97.5 23.7665 76.2335 2.5 50 2.5C23.7665 2.5 2.5 23.7665 2.5 50C2.5 76.2335 23.7665 97.5 50 97.5Z" stroke="#424753" stroke-opacity="0.1" stroke-width="5"/>
</svg>
