<svg width="100" height="100" viewBox="0 0 100 100" fill="none" xmlns="http://www.w3.org/2000/svg">
<path opacity="0.5" d="M50 97.5C76.2335 97.5 97.5 76.2335 97.5 50C97.5 23.7665 76.2335 2.5 50 2.5C23.7665 2.5 2.5 23.7665 2.5 50C2.5 76.2335 23.7665 97.5 50 97.5Z" stroke="#424753" stroke-opacity="0.1" stroke-width="5"/>
<path fill-rule="evenodd" clip-rule="evenodd" d="M57.3591 44.9355L58.713 42.9282L59.2311 43.2776C59.4591 43.4314 59.7626 43.4175 59.9764 43.2435L65.0258 39.1105C65.1787 38.9845 65.2632 38.7943 65.2546 38.5969C65.2449 38.3989 65.1433 38.2188 64.9795 38.1084L55.6529 31.8174C55.4881 31.7063 55.283 31.6795 55.0958 31.7447C54.9096 31.8106 54.7649 31.9603 54.7063 32.15L52.7658 38.38C52.6836 38.6427 52.7843 38.9292 53.0134 39.0837L53.5315 39.4332L52.1776 41.4405C48.4409 40.4776 44.3364 41.8887 42.0591 45.2649C39.3156 49.3324 38.5831 64.5101 38.5536 65.1551C38.5427 65.3724 38.647 65.58 38.8283 65.7023L47.2162 53.2667C47.233 53.2419 47.2563 53.2274 47.2758 53.2074C46.5294 52.3738 46.4055 51.1156 47.0598 50.1457C47.8321 49.0006 49.3852 48.6987 50.5303 49.471C51.6744 50.2427 51.9773 51.7965 51.2049 52.9416C50.5507 53.9116 49.3367 54.2673 48.2848 53.8865C48.2719 53.9124 48.2693 53.9409 48.2525 53.9657L39.8646 66.4013C40.048 66.525 40.2854 66.5419 40.4863 66.4452C41.0856 66.1559 55.2032 59.3084 57.6036 55.7498C59.8809 52.3735 59.6505 48.0386 57.3591 44.9355ZM56.5227 43.9401C56.0893 43.4985 55.6054 43.0937 55.0738 42.7351C54.5411 42.3758 53.9845 42.0788 53.4138 41.8431L54.5678 40.1322L57.6767 42.2292L56.5227 43.9401Z" fill="#424753"/>
</svg>
